HC-05
1234

07-18 16:14:45.869  14613-14613/com.example.threemuskinterns.vehicleenhancementsystem I/Device name:? HC-05
07-18 16:14:45.869  14613-14613/com.example.threemuskinterns.vehicleenhancementsystem I/Device address:? 98:D3:31:60:3D:5B

Distance 1 2 3 4 (all 2 bytes)
Temperature 2bytes
Humidity 2bytes